<?xml version="1.0" encoding="UTF-8"?>
<svg width="61px" height="63px" viewBox="0 0 61 63" version="1.1" xmlns="http://www.w3.org/2000/svg" xmlns:xlink="http://www.w3.org/1999/xlink">
    <defs></defs>
    <g id="about" stroke="none" stroke-width="1" fill="none" fill-rule="evenodd">
        <g id="desktop" transform="translate(-908.000000, -446.000000)" stroke="#232323" stroke-width="2">
            <g id="eggs" transform="translate(248.000000, 440.000000)">
                <g id="icon" transform="translate(661.000000, 7.000000)">
                    <circle id="Oval-3" cx="31" cy="31" r="26"></circle>
                    <path d="M0.995112597,23.1785664 C0.34563924,25.6771125 0,28.2981921 0,31 M40.4282329,60.540229 C48.6698427,57.9120341 55.4143724,51.9303341 59.0576742,44.1992769 M31,0 C20.2593396,0 10.7944692,5.46230645 5.23177782,13.7605304" id="Oval-3" stroke-linecap="round" stroke-linejoin="round"></path>
                    <path d="M43.0357187,54 C43.0357187,54 41.8977527,49.0048311 42.1673784,45.8043765 C42.4370042,42.6039219 45.1172091,42.4710906 44.2375463,39.7343193 C43.3578836,36.9975479 39.9538778,37.3324456 38.9908924,35.9218211 C38.0279071,34.5111966 37.5306039,34.1688887 38.6080586,31.4879912 C39.6855133,28.8070937 39.7383272,27.9054954 42.4952943,27.2022508 C45.2522613,26.4990061 46.5766433,27.7617236 48.506024,28.9632273 C50.4354046,30.164731 49.5085606,31.9611278 51.8225905,33.0107369 C54.1366204,34.0603461 57,32.8159671 57,32.8159671" id="Path-22" stroke-linecap="round" stroke-linejoin="round"></path>
                    <path d="M49.6171379,13 C49.6171379,13 48.8550689,13.2652036 47.8674027,14.7257147 C46.8797366,16.1862258 48.2747424,17.327693 46.8591665,18.254555 C45.4435905,19.1814171 43.7091374,17.5199885 42.40619,18.3014964 C41.1032426,19.0830044 40.6471631,19.9981354 41.2861063,21.5972768 C41.9250496,23.1964183 42.8363751,24.1147426 44.7726887,24.2243482 C46.7090023,24.3339537 45.7342937,21.6147219 48.8659831,22.0263377 C51.9976724,22.4379535 56,26 56,26" id="Path-23" stroke-linecap="round" stroke-linejoin="round"></path>
                    <path d="M11.1504292,14.4104979 C11.1504292,14.4104979 10.7159019,19.3948445 11.323878,20.8654797 C11.931854,22.3361148 13.5840107,20.9107732 14.1145696,21.5804665 C14.6451285,22.2501599 12.764126,21.9172038 14.0969427,24.3657567 C15.4297594,26.8143096 17.818335,28.384752 17.818335,28.384752 C17.818335,28.384752 17.3976477,29.7361592 17.254274,31.2169962 C17.1109003,32.6978333 16.464138,32.2544951 17.2507486,34.2470761 C18.0373592,36.239657 19.4517595,35.8882092 19.7551793,37.5520957 C20.0585991,39.2159821 18.9585194,37.6206558 18.5727665,41.496727 C18.1870136,45.3727981 18.2287663,48.4296796 18.5643056,49.5180755 C18.8998449,50.6064714 19.9429659,49.6601808 20.7528622,48.568349 C21.5627584,47.4765171 20.9584247,46.1023971 21.7491349,45.2245651 C22.5398451,44.3467331 22.7499409,45.9132766 23.989162,44.9754682 C25.2283831,44.0376599 25.1924514,42.5672023 26.1410546,41.9008812 C27.0896578,41.23456 27.3643819,42.5066819 28.3662752,41.9008812 C29.3681684,41.2950804 29.6639528,40.7798014 30.0873662,39.5147202 C30.5107796,38.249639 31.1756214,38.3141754 30.1994733,36.4236224 C29.2233252,34.5330694 28.1725804,35.1054922 27.0647045,33.6605859 C25.9568286,32.2156795 27.1208859,31.9209836 25.2738109,29.9995086 C23.4267359,28.0780336 21.0045744,27.3563544 21.0045744,27.3563544 C21.0045744,27.3563544 17.597877,24.2373083 17.818335,23.3693694 C18.0387929,22.5014305 17.2269907,25.5587126 21.8838044,23.8948417 C26.5406182,22.2309708 29.6866747,19.140429 31.0363988,18.6465797 C32.3861229,18.1527304 33.0586777,19.6743313 33.8242701,19.5259561 C34.5898626,19.3775809 35.5408438,19.4593182 35.1441728,17.8504749 C34.7475018,16.2416315 32.1017906,15.8256953 32.6171797,14.6301626 C33.1325687,13.4346298 37.5635835,14.8157629 36.9400019,13.6847432 C36.3164204,12.5537235 34.5764165,10.7932891 32.6171797,10.3933629 C30.6579428,9.99343681 27.2220601,11.8178054 26.5549344,11.5649077 C25.8878086,11.31201 27.4466656,9.54449597 25.9513891,9.13639308 C24.4561126,8.72829018 23.5210547,10.4212715 22.2624304,10.3933629 C21.003806,10.3654544 19.8003042,9 19.8003042,9" id="Path-24" stroke-linecap="round" stroke-linejoin="round"></path>
                </g>
            </g>
        </g>
    </g>
</svg>